{
    "name": "Projeto",
    "alias": "projeto",
    "description": "",
    "keywords": [],
    "active": 1,
    "order": 0,
    "providers": [
        "Modules\\Projeto\\Providers\\ProjetoServiceProvider"
    ],
    "aliases": {},
    "files": [],
    "requires": []
}
